…
    ## Warning in impacts.sarlm(sdm, tr = trMC, R = 1000): install the spatialreg
    ## package

    ## Warning: Function intImpacts moved to the spatialreg package

    ## Warning in intImpacts(rho = rho, beta = beta, P = P, n = n, mu = mu, Sigma
    ## = Sigma, : install the spatialreg package

    ## Warning: Method summary.lagImpact moved to the spatialreg package

    ## Warning in summary.lagImpact(impacts(sdm, tr = trMC, R = 1000), zstats =
    ## TRUE): install the spatialreg package

    ## # A tibble: 45 x 7
    ##    var   effect Base  `Long, no tweet~ `Long, tweets` `Short, no twee~
    ##    <chr> <chr>  <chr> <chr>            <chr>          <chr>           
    ##  1 Coll~ direct -0.0~ -0.08987 ***     -0.0904 ***    -0.08918 ***    
    ##  2 Coll~ indir~ "-0.~ "-0.00303  "     "-0.0118  "    "0.00562  "     
    ##  3 Coll~ total  -0.0~ -0.0929 ***      -0.10221 ***   -0.08357 ***    
    ##  4 Full~ direct -0.0~ -0.06252 ***     -0.06113 ***   -0.06402 ***    
    ##  5 Full~ indir~ -0.1~ -0.17928 ***     -0.17106 ***   -0.18558 ***    
    ##  6 Full~ total  -0.2~ -0.2418 ***      -0.23219 ***   -0.2496 ***     
    ##  7 log(~ direct 0.09~ 0.11296 .        "0.08774  "    0.12687 *       
    ##  8 log(~ indir~ -1.5~ -1.49707 ***     -1.60613 ***   -1.33877 ***    
    ##  9 log(~ total  -1.4~ -1.3841 ***      -1.51838 ***   -1.2119 ***     
    ## 10 park~ direct <NA>  <NA>             <NA>           "-0.07672  "    
    ## # ... with 35 more rows, and 1 more variable: `Short, tweets` <chr>
…
